<svg xmlns="http://www.w3.org/2000/svg" viewBox="0 0 16 16" width="16" height="16">
  <defs>
    <style>
      .cls-1 {
        isolation: isolate;
      }

      .cls-2 {
        fill: #009fe3;
      }

      .cls-3 {
        fill: #fff;
        fill-rule: evenodd;
      }
    </style>
  </defs>
  <title>premium</title>
  <g id="Ellipse_2" data-name="Ellipse 2" class="cls-1">
    <g id="Ellipse_2-2" data-name="Ellipse 2">
      <circle class="cls-2" cx="8" cy="8" r="8"/>
    </g>
  </g>
  <g id="Polygone_1" data-name="Polygone 1" class="cls-1">
    <g id="Polygone_1-2" data-name="Polygone 1">
      <polygon class="cls-3" points="13.01 6.3 9.18 6.39 8.03 3 6.82 6.44 2.99 6.52 6.08 8.56 4.86 11.99 7.97 9.81 11.05 11.86 9.89 8.47 13.01 6.3"/>
    </g>
  </g>
</svg>
