<?xml version="1.0" encoding="utf-8"?>
<!-- Generator: Adobe Illustrator 22.0.0, SVG Export Plug-In . SVG Version: 6.00 Build 0)  -->
<svg version="1.1" id="Calque_1" xmlns="http://www.w3.org/2000/svg" xmlns:xlink="http://www.w3.org/1999/xlink" x="0px" y="0px"
	 viewBox="0 0 82.3 69.6" style="enable-background:new 0 0 82.3 69.6;" xml:space="preserve">
<path d="M80.9,27.5c-0.3-0.2-0.6-0.2-0.9-0.1l-8.9,2.9h-9v-1.1c0-0.6-0.4-1-1-1h-4.4c4.3-2,7.3-6.3,7.3-11.4
	c0-6.9-5.6-12.5-12.5-12.5S39,9.9,39,16.8c0,5,3,9.4,7.3,11.4H30.1c4.3-2,7.3-6.3,7.3-11.4c0-6.8-5.6-12.4-12.5-12.4
	S12.4,10,12.4,16.9c0,5,3,9.4,7.3,11.4h-4.3c-0.6,0-1,0.4-1,1v7H8.3c-4,0-7.3,3.3-7.3,7.3v4.9c0,4,3.3,7.3,7.3,7.3h6.1v7
	c0,0.6,0.4,1,1,1H61c0.6,0,1-0.4,1-1v-1.1h9l8.9,2.9c0.1,0,0.2,0,0.3,0c0.2,0,0.4-0.1,0.6-0.2c0.3-0.2,0.4-0.5,0.4-0.8V28.3
	C81.3,28,81.1,27.7,80.9,27.5z M41,16.9c0-5.8,4.7-10.5,10.5-10.5S62,11.1,62,16.9s-4.7,10.5-10.5,10.5S41,22.6,41,16.9z M14.4,16.9
	c0-5.8,4.7-10.5,10.5-10.5s10.5,4.7,10.5,10.5s-4.7,10.5-10.5,10.5S14.4,22.6,14.4,16.9z M8.4,53.8c-2.9,0-5.3-2.4-5.3-5.3v-4.9
	c0-2.9,2.4-5.3,5.3-5.3h6.1v15.6L8.4,53.8L8.4,53.8z M60.1,61.8H16.4V30.2H60v31.6H60.1z M62.1,32.3h8.2v27.4h-8.2V32.3z M79.3,62.3
	l-7-2.3V32l7-2.3V62.3z"/>
</svg>
